EESchema Schematic File Version 2
LIBS:EKB
LIBS:power
LIBS:device
LIBS:transistors
LIBS:conn
LIBS:linear
LIBS:regul
LIBS:74xx
LIBS:cmos4000
LIBS:adc-dac
LIBS:memory
LIBS:xilinx
LIBS:microcontrollers
LIBS:dsp
LIBS:microchip
LIBS:analog_switches
LIBS:motorola
LIBS:texas
LIBS:intel
LIBS:audio
LIBS:interface
LIBS:digital-audio
LIBS:philips
LIBS:display
LIBS:cypress
LIBS:siliconi
LIBS:opto
LIBS:atmel
LIBS:contrib
LIBS:valves
LIBS:KMX_TWI_INT-cache
EELAYER 25 0
EELAYER END
$Descr A4 8268 11693 portrait
encoding utf-8
Sheet 1 1
Title "Key Matrix on Two Wire Interface with Interrupt"
Date "2017-01-25"
Rev "1.0.1"
Comp "Martin Singer"
Comment1 "Breadboard with TWI (I2C) port extension ICs"
Comment2 "5x5 Key Switch Matrix (KMX)"
Comment3 ""
Comment4 ""
$EndDescr
$Comp
L PCF8574A U2
U 1 1 5847E7F7
P 6350 2150
F 0 "U2" H 6000 2750 50  0000 L CNN
F 1 "PCF8574A" H 6450 2750 50  0000 L CNN
F 2 "" H 6350 2150 50  0000 C CNN
F 3 "" H 6350 2150 50  0000 C CNN
	1    6350 2150
	0    1    1    0   
$EndComp
$Comp
L +5V #PWR9
U 1 1 5847EB79
P 1550 2300
F 0 "#PWR9" H 1550 2150 50  0001 C CNN
F 1 "+5V" H 1550 2440 50  0000 C CNN
F 2 "" H 1550 2300 50  0000 C CNN
F 3 "" H 1550 2300 50  0000 C CNN
	1    1550 2300
	1    0    0    -1  
$EndComp
$Comp
L GND #PWR10
U 1 1 5847EB93
P 1550 2500
F 0 "#PWR10" H 1550 2250 50  0001 C CNN
F 1 "GND" H 1550 2350 50  0000 C CNN
F 2 "" H 1550 2500 50  0000 C CNN
F 3 "" H 1550 2500 50  0000 C CNN
	1    1550 2500
	1    0    0    -1  
$EndComp
$Comp
L PWR_FLAG #FLG1
U 1 1 5847EDFE
P 1200 2350
F 0 "#FLG1" H 1200 2445 50  0001 C CNN
F 1 "PWR_FLAG" H 1200 2530 50  0000 C CNN
F 2 "" H 1200 2350 50  0000 C CNN
F 3 "" H 1200 2350 50  0000 C CNN
	1    1200 2350
	1    0    0    -1  
$EndComp
$Comp
L PWR_FLAG #FLG2
U 1 1 5847EE21
P 1200 2450
F 0 "#FLG2" H 1200 2545 50  0001 C CNN
F 1 "PWR_FLAG" H 1200 2630 50  0000 C CNN
F 2 "" H 1200 2450 50  0000 C CNN
F 3 "" H 1200 2450 50  0000 C CNN
	1    1200 2450
	-1   0    0    1   
$EndComp
Text Label 1700 2250 0    60   ~ 0
SCL
Text Label 1700 2150 0    60   ~ 0
SDA
$Comp
L GND #PWR8
U 1 1 584804D9
P 5550 2250
F 0 "#PWR8" H 5550 2000 50  0001 C CNN
F 1 "GND" H 5550 2100 50  0000 C CNN
F 2 "" H 5550 2250 50  0000 C CNN
F 3 "" H 5550 2250 50  0000 C CNN
	1    5550 2250
	1    0    0    -1  
$EndComp
$Comp
L +5V #PWR6
U 1 1 584804F3
P 7150 2050
F 0 "#PWR6" H 7150 1900 50  0001 C CNN
F 1 "+5V" H 7150 2190 50  0000 C CNN
F 2 "" H 7150 2050 50  0000 C CNN
F 3 "" H 7150 2050 50  0000 C CNN
	1    7150 2050
	1    0    0    -1  
$EndComp
Text Label 6750 1450 3    60   ~ 0
SCL
Text Label 6650 1450 3    60   ~ 0
SDA
$Comp
L R R2
U 1 1 58480E36
P 2400 1700
F 0 "R2" V 2480 1700 50  0000 C CNN
F 1 "22K" V 2400 1700 50  0000 C CNN
F 2 "" V 2330 1700 50  0000 C CNN
F 3 "" H 2400 1700 50  0000 C CNN
	1    2400 1700
	1    0    0    -1  
$EndComp
$Comp
L R R1
U 1 1 58480ED3
P 2200 1700
F 0 "R1" V 2280 1700 50  0000 C CNN
F 1 "22K" V 2200 1700 50  0000 C CNN
F 2 "" V 2130 1700 50  0000 C CNN
F 3 "" H 2200 1700 50  0000 C CNN
	1    2200 1700
	1    0    0    -1  
$EndComp
$Comp
L +5V #PWR1
U 1 1 5848119D
P 2400 1350
F 0 "#PWR1" H 2400 1200 50  0001 C CNN
F 1 "+5V" H 2400 1490 50  0000 C CNN
F 2 "" H 2400 1350 50  0000 C CNN
F 3 "" H 2400 1350 50  0000 C CNN
	1    2400 1350
	1    0    0    -1  
$EndComp
Text Label 6750 2850 1    60   ~ 0
RD0
Text Label 6650 2850 1    60   ~ 0
RD1
Text Label 6550 2850 1    60   ~ 0
RD2
Text Label 6450 2850 1    60   ~ 0
RD3
Text Label 6350 2850 1    60   ~ 0
RD4
Text Notes 5800 3200 0    60   ~ 0
TWI IC0 --> port reader: "RD"\n(+5V, row)
Entry Wire Line
	6750 2850 6650 2950
Entry Wire Line
	6650 2850 6550 2950
Entry Wire Line
	6550 2850 6450 2950
Entry Wire Line
	6450 2850 6350 2950
Entry Wire Line
	6350 2850 6250 2950
$Comp
L GND #PWR7
U 1 1 58484DF2
P 3250 2250
F 0 "#PWR7" H 3250 2000 50  0001 C CNN
F 1 "GND" H 3250 2100 50  0000 C CNN
F 2 "" H 3250 2250 50  0000 C CNN
F 3 "" H 3250 2250 50  0000 C CNN
	1    3250 2250
	1    0    0    -1  
$EndComp
$Comp
L +5V #PWR5
U 1 1 58484DF8
P 4850 2050
F 0 "#PWR5" H 4850 1900 50  0001 C CNN
F 1 "+5V" H 4850 2190 50  0000 C CNN
F 2 "" H 4850 2050 50  0000 C CNN
F 3 "" H 4850 2050 50  0000 C CNN
	1    4850 2050
	1    0    0    -1  
$EndComp
Text Label 4450 1450 3    60   ~ 0
SCL
Text Label 4350 1450 3    60   ~ 0
SDA
Text Label 4450 2850 1    60   ~ 0
DR0
Text Label 4350 2850 1    60   ~ 0
DR1
Text Label 4250 2850 1    60   ~ 0
DR2
Text Label 4150 2850 1    60   ~ 0
DR3
Text Label 4050 2850 1    60   ~ 0
DR4
Text Notes 3500 3200 0    60   ~ 0
TWI IC1 --> port driver: "DR"\n(GND, column)
Entry Wire Line
	4450 2850 4350 2950
Entry Wire Line
	4350 2850 4250 2950
Entry Wire Line
	4250 2850 4150 2950
Entry Wire Line
	4150 2850 4050 2950
Entry Wire Line
	4050 2850 3950 2950
$Comp
L +5V #PWR3
U 1 1 58484E0C
P 4150 1350
F 0 "#PWR3" H 4150 1200 50  0001 C CNN
F 1 "+5V" H 4150 1490 50  0000 C CNN
F 2 "" H 4150 1350 50  0000 C CNN
F 3 "" H 4150 1350 50  0000 C CNN
	1    4150 1350
	1    0    0    -1  
$EndComp
$Comp
L D D21
U 1 1 58485962
P 2250 9100
F 0 "D21" H 2250 9200 50  0000 C CNN
F 1 "D" H 2250 9000 50  0000 C CNN
F 2 "" H 2250 9100 50  0000 C CNN
F 3 "" H 2250 9100 50  0000 C CNN
	1    2250 9100
	1    0    0    -1  
$EndComp
$Comp
L D D16
U 1 1 58485B7A
P 2250 8100
F 0 "D16" H 2250 8200 50  0000 C CNN
F 1 "D" H 2250 8000 50  0000 C CNN
F 2 "" H 2250 8100 50  0000 C CNN
F 3 "" H 2250 8100 50  0000 C CNN
	1    2250 8100
	1    0    0    -1  
$EndComp
$Comp
L D D11
U 1 1 58485D64
P 2250 7100
F 0 "D11" H 2250 7200 50  0000 C CNN
F 1 "D" H 2250 7000 50  0000 C CNN
F 2 "" H 2250 7100 50  0000 C CNN
F 3 "" H 2250 7100 50  0000 C CNN
	1    2250 7100
	1    0    0    -1  
$EndComp
$Comp
L D D6
U 1 1 58485D74
P 2250 6100
F 0 "D6" H 2250 6200 50  0000 C CNN
F 1 "D" H 2250 6000 50  0000 C CNN
F 2 "" H 2250 6100 50  0000 C CNN
F 3 "" H 2250 6100 50  0000 C CNN
	1    2250 6100
	1    0    0    -1  
$EndComp
$Comp
L D D1
U 1 1 58485E70
P 2250 5100
F 0 "D1" H 2250 5200 50  0000 C CNN
F 1 "D" H 2250 5000 50  0000 C CNN
F 2 "" H 2250 5100 50  0000 C CNN
F 3 "" H 2250 5100 50  0000 C CNN
	1    2250 5100
	1    0    0    -1  
$EndComp
$Comp
L D D22
U 1 1 58486100
P 3150 9100
F 0 "D22" H 3150 9200 50  0000 C CNN
F 1 "D" H 3150 9000 50  0000 C CNN
F 2 "" H 3150 9100 50  0000 C CNN
F 3 "" H 3150 9100 50  0000 C CNN
	1    3150 9100
	1    0    0    -1  
$EndComp
$Comp
L D D17
U 1 1 58486110
P 3150 8100
F 0 "D17" H 3150 8200 50  0000 C CNN
F 1 "D" H 3150 8000 50  0000 C CNN
F 2 "" H 3150 8100 50  0000 C CNN
F 3 "" H 3150 8100 50  0000 C CNN
	1    3150 8100
	1    0    0    -1  
$EndComp
$Comp
L D D12
U 1 1 58486120
P 3150 7100
F 0 "D12" H 3150 7200 50  0000 C CNN
F 1 "D" H 3150 7000 50  0000 C CNN
F 2 "" H 3150 7100 50  0000 C CNN
F 3 "" H 3150 7100 50  0000 C CNN
	1    3150 7100
	1    0    0    -1  
$EndComp
$Comp
L D D7
U 1 1 58486130
P 3150 6100
F 0 "D7" H 3150 6200 50  0000 C CNN
F 1 "D" H 3150 6000 50  0000 C CNN
F 2 "" H 3150 6100 50  0000 C CNN
F 3 "" H 3150 6100 50  0000 C CNN
	1    3150 6100
	1    0    0    -1  
$EndComp
$Comp
L D D2
U 1 1 58486140
P 3150 5100
F 0 "D2" H 3150 5200 50  0000 C CNN
F 1 "D" H 3150 5000 50  0000 C CNN
F 2 "" H 3150 5100 50  0000 C CNN
F 3 "" H 3150 5100 50  0000 C CNN
	1    3150 5100
	1    0    0    -1  
$EndComp
$Comp
L D D23
U 1 1 58487424
P 4050 9100
F 0 "D23" H 4050 9200 50  0000 C CNN
F 1 "D" H 4050 9000 50  0000 C CNN
F 2 "" H 4050 9100 50  0000 C CNN
F 3 "" H 4050 9100 50  0000 C CNN
	1    4050 9100
	1    0    0    -1  
$EndComp
$Comp
L D D18
U 1 1 58487434
P 4050 8100
F 0 "D18" H 4050 8200 50  0000 C CNN
F 1 "D" H 4050 8000 50  0000 C CNN
F 2 "" H 4050 8100 50  0000 C CNN
F 3 "" H 4050 8100 50  0000 C CNN
	1    4050 8100
	1    0    0    -1  
$EndComp
$Comp
L D D13
U 1 1 58487444
P 4050 7100
F 0 "D13" H 4050 7200 50  0000 C CNN
F 1 "D" H 4050 7000 50  0000 C CNN
F 2 "" H 4050 7100 50  0000 C CNN
F 3 "" H 4050 7100 50  0000 C CNN
	1    4050 7100
	1    0    0    -1  
$EndComp
$Comp
L D D8
U 1 1 58487454
P 4050 6100
F 0 "D8" H 4050 6200 50  0000 C CNN
F 1 "D" H 4050 6000 50  0000 C CNN
F 2 "" H 4050 6100 50  0000 C CNN
F 3 "" H 4050 6100 50  0000 C CNN
	1    4050 6100
	1    0    0    -1  
$EndComp
$Comp
L D D3
U 1 1 58487464
P 4050 5100
F 0 "D3" H 4050 5200 50  0000 C CNN
F 1 "D" H 4050 5000 50  0000 C CNN
F 2 "" H 4050 5100 50  0000 C CNN
F 3 "" H 4050 5100 50  0000 C CNN
	1    4050 5100
	1    0    0    -1  
$EndComp
$Comp
L D D24
U 1 1 58487474
P 4950 9100
F 0 "D24" H 4950 9200 50  0000 C CNN
F 1 "D" H 4950 9000 50  0000 C CNN
F 2 "" H 4950 9100 50  0000 C CNN
F 3 "" H 4950 9100 50  0000 C CNN
	1    4950 9100
	1    0    0    -1  
$EndComp
$Comp
L D D19
U 1 1 58487484
P 4950 8100
F 0 "D19" H 4950 8200 50  0000 C CNN
F 1 "D" H 4950 8000 50  0000 C CNN
F 2 "" H 4950 8100 50  0000 C CNN
F 3 "" H 4950 8100 50  0000 C CNN
	1    4950 8100
	1    0    0    -1  
$EndComp
$Comp
L D D14
U 1 1 58487494
P 4950 7100
F 0 "D14" H 4950 7200 50  0000 C CNN
F 1 "D" H 4950 7000 50  0000 C CNN
F 2 "" H 4950 7100 50  0000 C CNN
F 3 "" H 4950 7100 50  0000 C CNN
	1    4950 7100
	1    0    0    -1  
$EndComp
$Comp
L D D9
U 1 1 584874A4
P 4950 6100
F 0 "D9" H 4950 6200 50  0000 C CNN
F 1 "D" H 4950 6000 50  0000 C CNN
F 2 "" H 4950 6100 50  0000 C CNN
F 3 "" H 4950 6100 50  0000 C CNN
	1    4950 6100
	1    0    0    -1  
$EndComp
$Comp
L D D4
U 1 1 584874B4
P 4950 5100
F 0 "D4" H 4950 5200 50  0000 C CNN
F 1 "D" H 4950 5000 50  0000 C CNN
F 2 "" H 4950 5100 50  0000 C CNN
F 3 "" H 4950 5100 50  0000 C CNN
	1    4950 5100
	1    0    0    -1  
$EndComp
$Comp
L D D25
U 1 1 58487758
P 5850 9100
F 0 "D25" H 5850 9200 50  0000 C CNN
F 1 "D" H 5850 9000 50  0000 C CNN
F 2 "" H 5850 9100 50  0000 C CNN
F 3 "" H 5850 9100 50  0000 C CNN
	1    5850 9100
	1    0    0    -1  
$EndComp
$Comp
L D D20
U 1 1 58487768
P 5850 8100
F 0 "D20" H 5850 8200 50  0000 C CNN
F 1 "D" H 5850 8000 50  0000 C CNN
F 2 "" H 5850 8100 50  0000 C CNN
F 3 "" H 5850 8100 50  0000 C CNN
	1    5850 8100
	1    0    0    -1  
$EndComp
$Comp
L D D15
U 1 1 58487778
P 5850 7100
F 0 "D15" H 5850 7200 50  0000 C CNN
F 1 "D" H 5850 7000 50  0000 C CNN
F 2 "" H 5850 7100 50  0000 C CNN
F 3 "" H 5850 7100 50  0000 C CNN
	1    5850 7100
	1    0    0    -1  
$EndComp
$Comp
L D D10
U 1 1 58487788
P 5850 6100
F 0 "D10" H 5850 6200 50  0000 C CNN
F 1 "D" H 5850 6000 50  0000 C CNN
F 2 "" H 5850 6100 50  0000 C CNN
F 3 "" H 5850 6100 50  0000 C CNN
	1    5850 6100
	1    0    0    -1  
$EndComp
$Comp
L D D5
U 1 1 58487798
P 5850 5100
F 0 "D5" H 5850 5200 50  0000 C CNN
F 1 "D" H 5850 5000 50  0000 C CNN
F 2 "" H 5850 5100 50  0000 C CNN
F 3 "" H 5850 5100 50  0000 C CNN
	1    5850 5100
	1    0    0    -1  
$EndComp
Text Label 2000 3900 3    60   ~ 0
DR0
Text Label 2900 3900 3    60   ~ 0
DR1
Text Label 3800 3900 3    60   ~ 0
DR2
Text Label 4700 3900 3    60   ~ 0
DR3
Text Label 5600 3900 3    60   ~ 0
DR4
Text Label 6500 4300 2    60   ~ 0
RD4
Text Label 6500 5300 2    60   ~ 0
RD3
Text Label 6500 6300 2    60   ~ 0
RD2
Text Label 6500 7300 2    60   ~ 0
RD1
Text Label 6500 8300 2    60   ~ 0
RD0
Text Notes 2400 9400 2    60   ~ 0
row -->
Text Notes 1800 9100 1    60   ~ 0
column -->
$Comp
L GND #PWR2
U 1 1 584C537C
P 3950 1350
F 0 "#PWR2" H 3950 1100 50  0001 C CNN
F 1 "GND" H 3950 1200 50  0000 C CNN
F 2 "" H 3950 1350 50  0000 C CNN
F 3 "" H 3950 1350 50  0000 C CNN
	1    3950 1350
	-1   0    0    1   
$EndComp
$Comp
L GND #PWR4
U 1 1 584C586F
P 6250 1350
F 0 "#PWR4" H 6250 1100 50  0001 C CNN
F 1 "GND" H 6250 1200 50  0000 C CNN
F 2 "" H 6250 1350 50  0000 C CNN
F 3 "" H 6250 1350 50  0000 C CNN
	1    6250 1350
	-1   0    0    1   
$EndComp
NoConn ~ 6050 2650
NoConn ~ 6150 2650
NoConn ~ 6250 2650
NoConn ~ 3750 2650
NoConn ~ 3850 2650
NoConn ~ 3950 2650
$Comp
L CONN_01X05 P1
U 1 1 588898C7
P 2700 2250
F 0 "P1" H 2700 2550 50  0000 C CNN
F 1 "CONN_01X05" V 2800 2250 50  0000 C CNN
F 2 "" H 2700 2250 50  0000 C CNN
F 3 "" H 2700 2250 50  0000 C CNN
	1    2700 2250
	1    0    0    -1  
$EndComp
$Comp
L R R3
U 1 1 58889BE6
P 2000 1700
F 0 "R3" V 2080 1700 50  0000 C CNN
F 1 "22K" V 2000 1700 50  0000 C CNN
F 2 "" V 1930 1700 50  0000 C CNN
F 3 "" H 2000 1700 50  0000 C CNN
	1    2000 1700
	1    0    0    -1  
$EndComp
Text Label 1700 2050 0    60   ~ 0
/INT
$Comp
L PCF8574A U1
U 1 1 58484DE0
P 4050 2150
F 0 "U1" H 3700 2750 50  0000 L CNN
F 1 "PCF8574A" H 4150 2750 50  0000 L CNN
F 2 "" H 4050 2150 50  0000 C CNN
F 3 "" H 4050 2150 50  0000 C CNN
	1    4050 2150
	0    1    1    0   
$EndComp
NoConn ~ 3650 1650
Wire Wire Line
	6350 1450 6350 1650
Wire Wire Line
	6250 1350 6250 1650
Wire Wire Line
	1200 2450 2500 2450
Wire Wire Line
	1200 2350 2500 2350
Wire Wire Line
	1550 2300 1550 2350
Connection ~ 1550 2350
Wire Wire Line
	1550 2500 1550 2450
Connection ~ 1550 2450
Wire Wire Line
	6750 2650 6750 2850
Wire Wire Line
	6650 2650 6650 2850
Wire Wire Line
	6550 2650 6550 2850
Wire Wire Line
	6450 2650 6450 2850
Wire Wire Line
	6350 2650 6350 2850
Wire Wire Line
	6750 1650 6750 1450
Wire Wire Line
	6650 1650 6650 1450
Wire Wire Line
	2400 1350 2400 1550
Wire Wire Line
	2200 1550 2200 1450
Wire Wire Line
	2000 1450 2400 1450
Connection ~ 2400 1450
Wire Wire Line
	1700 2150 2500 2150
Wire Wire Line
	1700 2250 2500 2250
Wire Wire Line
	2400 1850 2400 2250
Connection ~ 2400 2250
Wire Wire Line
	2200 1850 2200 2150
Connection ~ 2200 2150
Wire Bus Line
	6250 2950 6650 2950
Connection ~ 6450 1450
Connection ~ 6350 1450
Wire Wire Line
	4050 1450 4050 1650
Wire Wire Line
	3950 1350 3950 1650
Wire Wire Line
	4450 2650 4450 2850
Wire Wire Line
	4350 2650 4350 2850
Wire Wire Line
	4250 2650 4250 2850
Wire Wire Line
	4150 2650 4150 2850
Wire Wire Line
	4050 2650 4050 2850
Wire Wire Line
	4450 1650 4450 1450
Wire Wire Line
	4350 1650 4350 1450
Wire Bus Line
	3950 2950 4350 2950
Wire Wire Line
	2400 9100 2500 9100
Wire Wire Line
	2500 9100 2500 9000
Wire Wire Line
	2000 9100 2100 9100
Wire Wire Line
	2500 8400 2500 8300
Wire Wire Line
	2400 8100 2500 8100
Wire Wire Line
	2500 8100 2500 8000
Wire Wire Line
	2000 8100 2100 8100
Wire Wire Line
	2500 7400 2500 7300
Wire Wire Line
	2400 7100 2500 7100
Wire Wire Line
	2500 7100 2500 7000
Wire Wire Line
	2000 7100 2100 7100
Wire Wire Line
	2500 6400 2500 6300
Wire Wire Line
	2400 6100 2500 6100
Wire Wire Line
	2500 6100 2500 6000
Wire Wire Line
	2000 6100 2100 6100
Wire Wire Line
	2500 5400 2500 5300
Wire Wire Line
	2400 5100 2500 5100
Wire Wire Line
	2500 5100 2500 5000
Wire Wire Line
	2100 5100 2000 5100
Wire Wire Line
	2500 4400 2500 4300
Wire Wire Line
	3300 9100 3400 9100
Wire Wire Line
	3400 9100 3400 9000
Wire Wire Line
	2900 9100 3000 9100
Wire Wire Line
	3400 8400 3400 8300
Wire Wire Line
	3300 8100 3400 8100
Wire Wire Line
	3400 8100 3400 8000
Wire Wire Line
	2900 8100 3000 8100
Wire Wire Line
	3400 7400 3400 7300
Wire Wire Line
	3300 7100 3400 7100
Wire Wire Line
	3400 7100 3400 7000
Wire Wire Line
	2900 7100 3000 7100
Wire Wire Line
	3400 6400 3400 6300
Wire Wire Line
	3300 6100 3400 6100
Wire Wire Line
	3400 6100 3400 6000
Wire Wire Line
	2900 6100 3000 6100
Wire Wire Line
	3400 5400 3400 5300
Wire Wire Line
	3300 5100 3400 5100
Wire Wire Line
	3400 5100 3400 5000
Wire Wire Line
	3000 5100 2900 5100
Wire Wire Line
	3400 4400 3400 4300
Wire Wire Line
	4200 9100 4300 9100
Wire Wire Line
	4300 9100 4300 9000
Wire Wire Line
	3800 9100 3900 9100
Wire Wire Line
	4300 8300 4300 8400
Wire Wire Line
	4200 8100 4300 8100
Wire Wire Line
	4300 8100 4300 8000
Wire Wire Line
	3800 8100 3900 8100
Wire Wire Line
	4300 7300 4300 7400
Wire Wire Line
	4200 7100 4300 7100
Wire Wire Line
	4300 7100 4300 7000
Wire Wire Line
	3800 7100 3900 7100
Wire Wire Line
	4300 6300 4300 6400
Wire Wire Line
	4200 6100 4300 6100
Wire Wire Line
	4300 6100 4300 6000
Wire Wire Line
	3800 6100 3900 6100
Wire Wire Line
	4300 5300 4300 5400
Wire Wire Line
	4200 5100 4300 5100
Wire Wire Line
	4300 5100 4300 5000
Wire Wire Line
	3900 5100 3800 5100
Wire Wire Line
	4300 4300 4300 4400
Wire Wire Line
	5100 9100 5200 9100
Wire Wire Line
	5200 9100 5200 9000
Wire Wire Line
	4700 9100 4800 9100
Wire Wire Line
	5200 8300 5200 8400
Wire Wire Line
	5100 8100 5200 8100
Wire Wire Line
	5200 8100 5200 8000
Wire Wire Line
	4700 8100 4800 8100
Wire Wire Line
	5200 7300 5200 7400
Wire Wire Line
	5100 7100 5200 7100
Wire Wire Line
	5200 7100 5200 7000
Wire Wire Line
	4700 7100 4800 7100
Wire Wire Line
	5200 6300 5200 6400
Wire Wire Line
	5100 6100 5200 6100
Wire Wire Line
	5200 6100 5200 6000
Wire Wire Line
	4700 6100 4800 6100
Wire Wire Line
	5200 5300 5200 5400
Wire Wire Line
	5100 5100 5200 5100
Wire Wire Line
	5200 5100 5200 5000
Wire Wire Line
	4800 5100 4700 5100
Wire Wire Line
	5200 4300 5200 4400
Wire Wire Line
	6000 9100 6100 9100
Wire Wire Line
	6100 9100 6100 9000
Wire Wire Line
	5600 9100 5700 9100
Wire Wire Line
	6100 8300 6100 8400
Wire Wire Line
	6000 8100 6100 8100
Wire Wire Line
	6100 8100 6100 8000
Wire Wire Line
	5600 8100 5700 8100
Wire Wire Line
	6100 7300 6100 7400
Wire Wire Line
	6000 7100 6100 7100
Wire Wire Line
	6100 7100 6100 7000
Wire Wire Line
	5600 7100 5700 7100
Wire Wire Line
	6100 6300 6100 6400
Wire Wire Line
	6000 6100 6100 6100
Wire Wire Line
	6100 6100 6100 6000
Wire Wire Line
	5600 6100 5700 6100
Wire Wire Line
	6100 5300 6100 5400
Wire Wire Line
	6000 5100 6100 5100
Wire Wire Line
	6100 5100 6100 5000
Wire Wire Line
	5700 5100 5600 5100
Wire Wire Line
	6100 4300 6100 4400
Wire Wire Line
	2000 3900 2000 9100
Wire Wire Line
	2900 3900 2900 9100
Wire Wire Line
	3800 3900 3800 9100
Wire Wire Line
	4700 3900 4700 9100
Wire Wire Line
	5600 3900 5600 9100
Connection ~ 2000 8100
Connection ~ 2000 7100
Connection ~ 2000 6100
Connection ~ 2900 6100
Connection ~ 2900 7100
Connection ~ 2900 8100
Connection ~ 3800 8100
Connection ~ 3800 7100
Connection ~ 3800 6100
Connection ~ 4700 6100
Connection ~ 4700 7100
Connection ~ 4700 8100
Connection ~ 5600 8100
Connection ~ 5600 7100
Connection ~ 5600 6100
Wire Wire Line
	2500 8300 6500 8300
Wire Wire Line
	2500 7300 6500 7300
Wire Wire Line
	2500 6300 6500 6300
Wire Wire Line
	2500 5300 6500 5300
Wire Wire Line
	2500 4300 6500 4300
Connection ~ 3400 8300
Connection ~ 4300 8300
Connection ~ 5200 8300
Connection ~ 6100 8300
Connection ~ 3400 7300
Connection ~ 4300 7300
Connection ~ 5200 7300
Connection ~ 6100 7300
Connection ~ 3400 6300
Connection ~ 4300 6300
Connection ~ 5200 6300
Connection ~ 6100 6300
Connection ~ 3400 5300
Connection ~ 4300 5300
Connection ~ 5200 5300
Connection ~ 6100 5300
Connection ~ 3400 4300
Connection ~ 4300 4300
Connection ~ 5200 4300
Connection ~ 6100 4300
Connection ~ 2000 5100
Connection ~ 3800 5100
Connection ~ 4700 5100
Connection ~ 5600 5100
Connection ~ 2900 5100
Wire Wire Line
	4750 2150 4850 2150
Wire Wire Line
	4850 2150 4850 2050
Wire Wire Line
	7050 2150 7150 2150
Wire Wire Line
	7150 2150 7150 2050
Wire Wire Line
	5550 2250 5550 2150
Wire Wire Line
	5550 2150 5650 2150
Wire Wire Line
	3250 2250 3250 2150
Wire Wire Line
	3250 2150 3350 2150
Wire Wire Line
	6450 1450 6450 1650
Wire Wire Line
	3950 1450 4050 1450
Connection ~ 3950 1450
Wire Wire Line
	4150 1350 4150 1650
Wire Wire Line
	6250 1450 6450 1450
Connection ~ 6250 1450
Wire Wire Line
	1700 2050 2500 2050
Wire Wire Line
	2000 1850 2000 2050
Connection ~ 2000 2050
Wire Wire Line
	5950 1650 5950 1450
Text Label 5950 1450 3    60   ~ 0
/INT
Wire Wire Line
	2000 1550 2000 1450
Connection ~ 2200 1450
$Comp
L Switch SW1
U 1 1 5888ED1C
P 2500 4700
F 0 "SW1" H 2500 4850 60  0000 C CNN
F 1 "Switch" H 2500 4600 60  0000 C CNN
F 2 "" H 2500 4700 60  0001 C CNN
F 3 "" H 2500 4700 60  0001 C CNN
	1    2500 4700
	0    -1   -1   0   
$EndComp
$Comp
L Switch SW2
U 1 1 5888FE2E
P 3400 4700
F 0 "SW2" H 3400 4850 60  0000 C CNN
F 1 "Switch" H 3400 4600 60  0000 C CNN
F 2 "" H 3400 4700 60  0001 C CNN
F 3 "" H 3400 4700 60  0001 C CNN
	1    3400 4700
	0    -1   -1   0   
$EndComp
$Comp
L Switch SW3
U 1 1 5888FEC3
P 4300 4700
F 0 "SW3" H 4300 4850 60  0000 C CNN
F 1 "Switch" H 4300 4600 60  0000 C CNN
F 2 "" H 4300 4700 60  0001 C CNN
F 3 "" H 4300 4700 60  0001 C CNN
	1    4300 4700
	0    -1   -1   0   
$EndComp
$Comp
L Switch SW4
U 1 1 5888FF5F
P 5200 4700
F 0 "SW4" H 5200 4850 60  0000 C CNN
F 1 "Switch" H 5200 4600 60  0000 C CNN
F 2 "" H 5200 4700 60  0001 C CNN
F 3 "" H 5200 4700 60  0001 C CNN
	1    5200 4700
	0    -1   -1   0   
$EndComp
$Comp
L Switch SW5
U 1 1 5888FFFC
P 6100 4700
F 0 "SW5" H 6100 4850 60  0000 C CNN
F 1 "Switch" H 6100 4600 60  0000 C CNN
F 2 "" H 6100 4700 60  0001 C CNN
F 3 "" H 6100 4700 60  0001 C CNN
	1    6100 4700
	0    -1   -1   0   
$EndComp
$Comp
L Switch SW6
U 1 1 5889009C
P 2500 5700
F 0 "SW6" H 2500 5850 60  0000 C CNN
F 1 "Switch" H 2500 5600 60  0000 C CNN
F 2 "" H 2500 5700 60  0001 C CNN
F 3 "" H 2500 5700 60  0001 C CNN
	1    2500 5700
	0    -1   -1   0   
$EndComp
$Comp
L Switch SW7
U 1 1 58890145
P 3400 5700
F 0 "SW7" H 3400 5850 60  0000 C CNN
F 1 "Switch" H 3400 5600 60  0000 C CNN
F 2 "" H 3400 5700 60  0001 C CNN
F 3 "" H 3400 5700 60  0001 C CNN
	1    3400 5700
	0    -1   -1   0   
$EndComp
$Comp
L Switch SW8
U 1 1 588901EB
P 4300 5700
F 0 "SW8" H 4300 5850 60  0000 C CNN
F 1 "Switch" H 4300 5600 60  0000 C CNN
F 2 "" H 4300 5700 60  0001 C CNN
F 3 "" H 4300 5700 60  0001 C CNN
	1    4300 5700
	0    -1   -1   0   
$EndComp
$Comp
L Switch SW9
U 1 1 58890298
P 5200 5700
F 0 "SW9" H 5200 5850 60  0000 C CNN
F 1 "Switch" H 5200 5600 60  0000 C CNN
F 2 "" H 5200 5700 60  0001 C CNN
F 3 "" H 5200 5700 60  0001 C CNN
	1    5200 5700
	0    -1   -1   0   
$EndComp
$Comp
L Switch SW10
U 1 1 58890340
P 6100 5700
F 0 "SW10" H 6100 5850 60  0000 C CNN
F 1 "Switch" H 6100 5600 60  0000 C CNN
F 2 "" H 6100 5700 60  0001 C CNN
F 3 "" H 6100 5700 60  0001 C CNN
	1    6100 5700
	0    -1   -1   0   
$EndComp
$Comp
L Switch SW14
U 1 1 588903F3
P 5200 6700
F 0 "SW14" H 5200 6850 60  0000 C CNN
F 1 "Switch" H 5200 6600 60  0000 C CNN
F 2 "" H 5200 6700 60  0001 C CNN
F 3 "" H 5200 6700 60  0001 C CNN
	1    5200 6700
	0    -1   -1   0   
$EndComp
$Comp
L Switch SW15
U 1 1 588904DD
P 6100 6700
F 0 "SW15" H 6100 6850 60  0000 C CNN
F 1 "Switch" H 6100 6600 60  0000 C CNN
F 2 "" H 6100 6700 60  0001 C CNN
F 3 "" H 6100 6700 60  0001 C CNN
	1    6100 6700
	0    -1   -1   0   
$EndComp
$Comp
L Switch SW13
U 1 1 58890596
P 4300 6700
F 0 "SW13" H 4300 6850 60  0000 C CNN
F 1 "Switch" H 4300 6600 60  0000 C CNN
F 2 "" H 4300 6700 60  0001 C CNN
F 3 "" H 4300 6700 60  0001 C CNN
	1    4300 6700
	0    -1   -1   0   
$EndComp
$Comp
L Switch SW12
U 1 1 5889066C
P 3400 6700
F 0 "SW12" H 3400 6850 60  0000 C CNN
F 1 "Switch" H 3400 6600 60  0000 C CNN
F 2 "" H 3400 6700 60  0001 C CNN
F 3 "" H 3400 6700 60  0001 C CNN
	1    3400 6700
	0    -1   -1   0   
$EndComp
$Comp
L Switch SW11
U 1 1 58890731
P 2500 6700
F 0 "SW11" H 2500 6850 60  0000 C CNN
F 1 "Switch" H 2500 6600 60  0000 C CNN
F 2 "" H 2500 6700 60  0001 C CNN
F 3 "" H 2500 6700 60  0001 C CNN
	1    2500 6700
	0    -1   -1   0   
$EndComp
$Comp
L Switch SW16
U 1 1 588907ED
P 2500 7700
F 0 "SW16" H 2500 7850 60  0000 C CNN
F 1 "Switch" H 2500 7600 60  0000 C CNN
F 2 "" H 2500 7700 60  0001 C CNN
F 3 "" H 2500 7700 60  0001 C CNN
	1    2500 7700
	0    -1   -1   0   
$EndComp
$Comp
L Switch SW17
U 1 1 588908B2
P 3400 7700
F 0 "SW17" H 3400 7850 60  0000 C CNN
F 1 "Switch" H 3400 7600 60  0000 C CNN
F 2 "" H 3400 7700 60  0001 C CNN
F 3 "" H 3400 7700 60  0001 C CNN
	1    3400 7700
	0    -1   -1   0   
$EndComp
$Comp
L Switch SW18
U 1 1 58890976
P 4300 7700
F 0 "SW18" H 4300 7850 60  0000 C CNN
F 1 "Switch" H 4300 7600 60  0000 C CNN
F 2 "" H 4300 7700 60  0001 C CNN
F 3 "" H 4300 7700 60  0001 C CNN
	1    4300 7700
	0    -1   -1   0   
$EndComp
$Comp
L Switch SW19
U 1 1 58890A37
P 5200 7700
F 0 "SW19" H 5200 7850 60  0000 C CNN
F 1 "Switch" H 5200 7600 60  0000 C CNN
F 2 "" H 5200 7700 60  0001 C CNN
F 3 "" H 5200 7700 60  0001 C CNN
	1    5200 7700
	0    -1   -1   0   
$EndComp
$Comp
L Switch SW20
U 1 1 58890AFF
P 6100 7700
F 0 "SW20" H 6100 7850 60  0000 C CNN
F 1 "Switch" H 6100 7600 60  0000 C CNN
F 2 "" H 6100 7700 60  0001 C CNN
F 3 "" H 6100 7700 60  0001 C CNN
	1    6100 7700
	0    -1   -1   0   
$EndComp
$Comp
L Switch SW25
U 1 1 58890BCE
P 6100 8700
F 0 "SW25" H 6100 8850 60  0000 C CNN
F 1 "Switch" H 6100 8600 60  0000 C CNN
F 2 "" H 6100 8700 60  0001 C CNN
F 3 "" H 6100 8700 60  0001 C CNN
	1    6100 8700
	0    -1   -1   0   
$EndComp
$Comp
L Switch SW24
U 1 1 58890CA6
P 5200 8700
F 0 "SW24" H 5200 8850 60  0000 C CNN
F 1 "Switch" H 5200 8600 60  0000 C CNN
F 2 "" H 5200 8700 60  0001 C CNN
F 3 "" H 5200 8700 60  0001 C CNN
	1    5200 8700
	0    -1   -1   0   
$EndComp
$Comp
L Switch SW23
U 1 1 58890D75
P 4300 8700
F 0 "SW23" H 4300 8850 60  0000 C CNN
F 1 "Switch" H 4300 8600 60  0000 C CNN
F 2 "" H 4300 8700 60  0001 C CNN
F 3 "" H 4300 8700 60  0001 C CNN
	1    4300 8700
	0    -1   -1   0   
$EndComp
$Comp
L Switch SW22
U 1 1 58890E4B
P 3400 8700
F 0 "SW22" H 3400 8850 60  0000 C CNN
F 1 "Switch" H 3400 8600 60  0000 C CNN
F 2 "" H 3400 8700 60  0001 C CNN
F 3 "" H 3400 8700 60  0001 C CNN
	1    3400 8700
	0    -1   -1   0   
$EndComp
$Comp
L Switch SW21
U 1 1 58890F1C
P 2500 8700
F 0 "SW21" H 2500 8850 60  0000 C CNN
F 1 "Switch" H 2500 8600 60  0000 C CNN
F 2 "" H 2500 8700 60  0001 C CNN
F 3 "" H 2500 8700 60  0001 C CNN
	1    2500 8700
	0    -1   -1   0   
$EndComp
$EndSCHEMATC
